%YAML 1.1
%TAG !u! tag:unity3d.com,2011:
--- !u!1045 &1
EditorBuildSettings:
  m_ObjectHideFlags: 0
  serializedVersion: 2
  m_Scenes:
  - enabled: 1
    path: Assets/Scenes/Base 2.unity
    guid: ac5f2d33acfa6994984524f3f5ebdb54
  - enabled: 1
    path: Assets/Scenes/Embodiment.unity
    guid: af06caaa3d62cdc4bb4759ee8c7a364d
  - enabled: 1
    path: Assets/Scenes/Environment.unity
    guid: 76bb07bdcbfb1ce4dad21ff80b51538e
  m_configObjects:
    Unity.XR.Oculus.Settings: {fileID: 11400000, guid: d0d8fb4b6b4ab9344babc8b37698bfc1, type: 2}
    com.unity.xr.management.loader_settings: {fileID: 11400000, guid: 066acacfa7e1800479b6ff86c8228ff5, type: 2}
    com.unity.xr.openxr.settings4: {fileID: 11400000, guid: 7d9648f8a27054b499d9c7a2d4ac9d77, type: 2}
